Sample,Year,Area,pH_(input),Temperature,logfO2,O2_(input),HCO3-_(input),HS-_(input),SiO2_(input),F-_(input),Cl-_(input),Br-_(input),SO4-2_(input),PO4-3_(input),NO2-_(input),NO3-_(input),Li+_(input),Na+_(input),NH4+_(input),K+_(input),Mg+2_(input),Ca+2_(input),Fe+2_(input),Al+3_(input),rho_(input),redox_(input),redox_(input),redox_(input),Pressure,Cl-,ClO-,ClO2-,ClO3-,ClO4-,H+,H2,H2O,H2O2,HCl,HClO,HO2-,HSiO3-,Na+,NaCl,NaHSiO3,NaOH,OH-,SiO2,pH,chalcedony,coesite,cristobalite,"cristobalite,alpha","cristobalite,beta",halite,quartz,charge imbalance,charge imbalance % of mean charge,charge imbalance % of total charge,ionic strength,mean charge,sigma(mz) anions,sigma(mz) cations,stoichiometric ionic strength,total charge,Log(Cl- x H+**1),Log(ClO- x H+**1),Log(ClO2- x H+**1),Log(ClO3- x H+**1),Log(ClO4- x H+**1),Log(Na+ / H+**1),H2(g),H2O(g),O2(g)
,,,pH,degC,logfO2,Molality,Molality,Molality,Hetero. equil.,Molality,Molality,Molality,Molality,Molality,Molality,Molality,Molality,Molality,Molality,Molality,Molality,Molality,Molality,Molality,,flag,value,unit,bar,log_activity,log_activity,log_activity,log_activity,log_activity,log_activity,log_activity,log_activity,log_activity,log_activity,log_activity,log_activity,log_activity,log_activity,log_activity,log_activity,log_activity,log_activity,log_activity,pH,affinity_kcal,affinity_kcal,affinity_kcal,affinity_kcal,affinity_kcal,affinity_kcal,affinity_kcal,%,%,eq/kg.H2O,molality,eq/kg.H2O,eq/kg.H2O,eq/kg.H2O,eq/kg.H2O,molality,Log ion-H+ activity ratio,Log ion-H+ activity ratio,Log ion-H+ activity ratio,Log ion-H+ activity ratio,Log ion-H+ activity ratio,Log ion-H+ activity ratio,log_fugacity,log_fugacity,log_fugacity
granite1,0.0,0.0,6.0,200.0,-40.0,0.0,0.0,0.0,quartz,0.0,0.5,0.0,0.0,0.0,0.0,0.0,0.0,0.5,0.0,0.0,0.0,0.0,0.0,0.0,0.9237062813041631,0,-4.0000E+01,Log fO2 (log bars) [from logfO2 column],1000.0,-0.5883,-33.0786,-60.0505,-78.2106,-99.7813,-6.0,-6.0953,-0.00672251,-32.3275,-6.7166,-32.1464,-36.3863,-4.7561,-0.5901,-1.2906,-4.5452,-5.5731,-4.9215,-2.3064,6.0,-0.36546,-1.10591,-0.72811,-0.72811,-1.21308,-5.69407,0.0,-7.8589929612e-05,-0.0175,-0.0088,0.44879,0.44879262231,-0.44883191727,0.44875332734,0.50004,0.89758524462,-6.58835,-39.07865,-66.05055,-84.21065,-105.78135,5.40986,-2.96722,1.29998,-40
